# mkinitcpio preset file for the 'iso' package

ALL_config="/etc/mkinitcpio.conf"
ALL_kver="/boot/vmlinuz-archiso"

PRESETS=('default' 'fallback')

#default_config="/etc/mkinitcpio.conf"
default_image="/boot/initramfs-archiso.img"
#default_options=""

#fallback_config="/etc/mkinitcpio.conf"
fallback_image="/boot/initramfs-archiso-fallback.img"
fallback_options="-S autodetect"
